Ejemplo de entrega
…
Los paquetes que usaremos serán los siguientes

library(tidyverse)
library(lubridate)
library(skimr)

Carga de datos

Los datos provienen originalmente de Kaggle aunque, como hemos mencionado, usaremos el repositorio de Paula Casado, cargando los datos directamente con read_csv().

netflix <-
  read_csv('https://raw.githubusercontent.com/elartedeldato/datasets/main/netflix_titles.csv')
netflix

# A tibble: 7,787 × 12
   show_id type   title director cast  country date_added release_year
   <chr>   <chr>  <chr> <chr>    <chr> <chr>   <chr>             <dbl>
 1 s1      TV Sh… 3%    <NA>     João… Brazil  August 14…         2020
 2 s2      Movie  7:19  Jorge M… Demi… Mexico  December …         2016
 3 s3      Movie  23:59 Gilbert… Tedd… Singap… December …         2011
 4 s4      Movie  9     Shane A… Elij… United… November …         2009
 5 s5      Movie  21    Robert … Jim … United… January 1…         2008
 6 s6      TV Sh… 46    Serdar … Erda… Turkey  July 1, 2…         2016
 7 s7      Movie  122   Yasir A… Amin… Egypt   June 1, 2…         2019
 8 s8      Movie  187   Kevin R… Samu… United… November …         1997
 9 s9      Movie  706   Shravan… Divy… India   April 1, …         2019
10 s10     Movie  1920  Vikram … Rajn… India   December …         2008
# … with 7,777 more rows, and 4 more variables: rating <chr>,
#   duration <chr>, listed_in <chr>, description <chr>
…
Preprocesamiento

Filtramos películas

Para visualizar antes vamos a filtrar las películas y series de instituto, usando la función str_detect() (del paquete {stringr}), que nos devolverá TRUE si detecta en la variable description (pasándola a mayúsculas por si acaso) el patrón de texto "HIGH SCHOOL".

netflix_hs <- netflix %>%
  filter(str_detect(toupper(description), "HIGH SCHOOL"))
netflix_hs 

# A tibble: 150 × 12
   show_id type  title  director cast  country date_added release_year
   <chr>   <chr> <chr>  <chr>    <chr> <chr>   <chr>             <dbl>
 1 s8      Movie 187    Kevin R… Samu… United… November …         1997
 2 s32     Movie #Frie… Rako Pr… Adip… Indone… May 21, 2…         2018
 3 s34     Movie #real… Fernand… Nest… United… September…         2017
 4 s47     Movie 1 Cha… Adam De… Lexi… United… July 1, 2…         2014
 5 s48     Movie 1 Mil… Leif Ti… Bill… United… July 7, 2…         2017
 6 s56     Movie 100 T… <NA>     Isab… United… November …         2014
 7 s58     Movie 100% … Jastis … Anis… Indone… January 7…         2020
 8 s148    Movie A Bab… Rachel … Tama… United… October 1…         2020
 9 s251    Movie A Wal… Adam Sh… Mand… United… July 1, 2…         2002
10 s297    Movie Acros… Julien … Sara… Canada  April 1, …         2015
# … with 140 more rows, and 4 more variables: rating <chr>,
#   duration <chr>, listed_in <chr>, description <chr>
…
