Análisis de datos en R
…
Los **datos en formato tibble** (del paquete `{tibble}` incluido ya en `{tidyverse}`) son un tipo de `data.frame` mejorado, para una **gestión más ágil, eficiente y coherente**. Las tablas en formato `tibble` tienen **4 ventajas principales**:

* Imprime **mayor información de las variables**, y solo **imprime por defecto las primeras filas**.

```r
library(tibble)
# tibble
tabla_tb <- tibble("x" = 1:30, "y" = rep(c("a", "b", "c"), 10),
                   "z" = 31:60, "logica" = rep(c(TRUE, TRUE, FALSE), 10))
tabla_tb
```

```
> # A tibble: 30 x 4
>        x y         z logica
>    <int> <chr> <int> <lgl> 
>  1     1 a        31 TRUE  
>  2     2 b        32 TRUE  
>  3     3 c        33 FALSE 
>  4     4 a        34 TRUE  
>  5     5 b        35 TRUE  
>  6     6 c        36 FALSE 
>  7     7 a        37 TRUE  
>  8     8 b        38 TRUE  
>  9     9 c        39 FALSE 
> 10    10 a        40 TRUE  
> # ... with 20 more rows
```
…
Salvo la primera, el **resto de columnas tienen como nombre los valores de una variable en sí misma (ingresos)**. Ahora en lugar de indicarle el nombre de todas vamos a indicarle **la columna que NO queremos pivotar**.

```r
# No necesitamos comillas en el nombre salvo que tengan caracteres que no sean letras
*relig_income %>% pivot_longer(-religion, names_to = "ingresos", values_to = "frec")
```

```
> # A tibble: 180 x 3
>    religion ingresos            frec
>    <chr>    <chr>              <dbl>
>  1 Agnostic <$10k                 27
>  2 Agnostic $10-20k               34
>  3 Agnostic $20-30k               60
>  4 Agnostic $30-40k               81
>  5 Agnostic $40-50k               76
>  6 Agnostic $50-75k              137
>  7 Agnostic $75-100k             122
>  8 Agnostic $100-150k            109
>  9 Agnostic >150k                 84
> 10 Agnostic Don't know/refused    96
> # ... with 170 more rows
```
…
<div class="figure" style="text-align: left">
<img src="https://rstudio-education.github.io/bootcamper/slides/02-visualize-data/img/luke-skywalker.png" alt="Imagen extraída de https://rstudio-education.github.io/" width="90%" />
<p class="caption">Imagen extraída de https://rstudio-education.github.io/</p>
</div>
]

.pull-right[

```r
starwars
```

```
> # A tibble: 87 x 14
>    name     height  mass hair_color skin_color eye_color birth_year sex   gender
>    <chr>     <int> <dbl> <chr>      <chr>      <chr>          <dbl> <chr> <chr> 
>  1 Luke Sk~    172    77 blond      fair       blue            19   male  mascu~
>  2 C-3PO       167    75 <NA>       gold       yellow         112   none  mascu~
>  3 R2-D2        96    32 <NA>       white, bl~ red             33   none  mascu~
>  4 Darth V~    202   136 none       white      yellow          41.9 male  mascu~
>  5 Leia Or~    150    49 brown      light      brown           19   fema~ femin~
>  6 Owen La~    178   120 brown, gr~ light      blue            52   male  mascu~
>  7 Beru Wh~    165    75 brown      light      blue            47   fema~ femin~
>  8 R5-D4        97    32 <NA>       white, red red             NA   none  mascu~
>  9 Biggs D~    183    84 black      light      brown           24   male  mascu~
> 10 Obi-Wan~    182    77 auburn, w~ fair       blue-gray       57   male  mascu~
> # ... with 77 more rows, and 5 more variables: homeworld <chr>, species <chr>,
> #   films <list>, vehicles <list>, starships <list>
```
…
```
> [1] 87 14
```

---

# Intro a tidyverse: conjunto starwars

```r
print(starwars, n = 3, width = Inf)
```

```
> # A tibble: 87 x 14
>   name           height  mass hair_color skin_color  eye_color birth_year sex  
>   <chr>           <int> <dbl> <chr>      <chr>       <chr>          <dbl> <chr>
> 1 Luke Skywalker    172    77 blond      fair        blue              19 male 
> 2 C-3PO             167    75 <NA>       gold        yellow           112 none 
> 3 R2-D2              96    32 <NA>       white, blue red               33 none 
>   gender    homeworld species films     vehicles  starships
>   <chr>     <chr>     <chr>   <list>    <list>    <list>   
> 1 masculine Tatooine  Human   <chr [5]> <chr [2]> <chr [2]>
> 2 masculine Tatooine  Droid   <chr [6]> <chr [0]> <chr [0]>
> 3 masculine Naboo     Droid   <chr [7]> <chr [0]> <chr [0]>
> # ... with 84 more rows
```
…
&nbsp;

Por ejemplo, vamos a **filtrar aquellos personajes con ojos marrones** (cumpliendo la condición `eye_color == "brown"`)

```r
starwars %>%
* filter(eye_color == "brown")
```

```
> # A tibble: 21 x 14
>    name     height  mass hair_color skin_color eye_color birth_year sex   gender
>    <chr>     <int> <dbl> <chr>      <chr>      <chr>          <dbl> <chr> <chr> 
>  1 Leia Or~    150  49   brown      light      brown           19   fema~ femin~
>  2 Biggs D~    183  84   black      light      brown           24   male  mascu~
>  3 Han Solo    180  80   brown      fair       brown           29   male  mascu~
>  4 Yoda         66  17   white      green      brown          896   male  mascu~
>  5 Boba Fe~    183  78.2 black      fair       brown           31.5 male  mascu~
>  6 Lando C~    177  79   black      dark       brown           31   male  mascu~
>  7 Arvel C~     NA  NA   brown      fair       brown           NA   male  mascu~
>  8 Wicket ~     88  20   brown      brown      brown            8   male  mascu~
>  9 Quarsh ~    183  NA   black      dark       brown           62   <NA>  <NA>  
> 10 Shmi Sk~    163  NA   black      fair       brown           72   fema~ femin~
> # ... with 11 more rows, and 5 more variables: homeworld <chr>, species <chr>,
> #   films <list>, vehicles <list>, starships <list>
```
…
El operador de comparación `==` puede ser cambiado por otros:

* `!=`: parte de la izq distinta la dcha.
* `<`, `>`: menor, mayor que...
* `<=`, `>=`: menor o igual, mayor igual que...
* `%in%`: si los valores pertenecen a una lista finita de opciones permitidas.
* `between(variable, val1, val2)`: si los valores (normalmente continuos) son mayores que `val1` y menores que `val2`

```r
starwars %>%
  filter(eye_color != "brown")
```

```
> # A tibble: 66 x 14
>    name     height  mass hair_color skin_color eye_color birth_year sex   gender
>    <chr>     <int> <dbl> <chr>      <chr>      <chr>          <dbl> <chr> <chr> 
>  1 Luke Sk~    172    77 blond      fair       blue            19   male  mascu~
>  2 C-3PO       167    75 <NA>       gold       yellow         112   none  mascu~
>  3 R2-D2        96    32 <NA>       white, bl~ red             33   none  mascu~
>  4 Darth V~    202   136 none       white      yellow          41.9 male  mascu~
>  5 Owen La~    178   120 brown, gr~ light      blue            52   male  mascu~
>  6 Beru Wh~    165    75 brown      light      blue            47   fema~ femin~
>  7 R5-D4        97    32 <NA>       white, red red             NA   none  mascu~
>  8 Obi-Wan~    182    77 auburn, w~ fair       blue-gray       57   male  mascu~
>  9 Anakin ~    188    84 blond      fair       blue            41.9 male  mascu~
> 10 Wilhuff~    180    NA auburn, g~ fair       blue            64   male  mascu~
> # ... with 56 more rows, and 5 more variables: homeworld <chr>, species <chr>,
> #   films <list>, vehicles <list>, starships <list>
```
…
* 📝 **Ejercicio 3**: selecciona del conjunto de `starwars` los personajes con ojos marrones o rojos.

* 📝 **Ejercicio 4**: selecciona del conjunto de `starwars` los personajes no humanos, hombres y que midan más de 170 cm, o los personajes con ojos marrones o rojos.

]

.panel[.panel-name[Sol. Ej. 1]

```r
starwars %>%
  filter(species == "Human")
```

```
> # A tibble: 35 x 14
>    name     height  mass hair_color skin_color eye_color birth_year sex   gender
>    <chr>     <int> <dbl> <chr>      <chr>      <chr>          <dbl> <chr> <chr> 
>  1 Luke Sk~    172    77 blond      fair       blue            19   male  mascu~
>  2 Darth V~    202   136 none       white      yellow          41.9 male  mascu~
>  3 Leia Or~    150    49 brown      light      brown           19   fema~ femin~
>  4 Owen La~    178   120 brown, gr~ light      blue            52   male  mascu~
>  5 Beru Wh~    165    75 brown      light      blue            47   fema~ femin~
>  6 Biggs D~    183    84 black      light      brown           24   male  mascu~
>  7 Obi-Wan~    182    77 auburn, w~ fair       blue-gray       57   male  mascu~
>  8 Anakin ~    188    84 blond      fair       blue            41.9 male  mascu~
>  9 Wilhuff~    180    NA auburn, g~ fair       blue            64   male  mascu~
> 10 Han Solo    180    80 brown      fair       brown           29   male  mascu~
> # ... with 25 more rows, and 5 more variables: homeworld <chr>, species <chr>,
> #   films <list>, vehicles <list>, starships <list>
```

]

.panel[.panel-name[Sol. Ej. 2]

```r
starwars %>%
  filter(between(mass, 65, 90))
```

```
> # A tibble: 32 x 14
>    name     height  mass hair_color skin_color eye_color birth_year sex   gender
>    <chr>     <int> <dbl> <chr>      <chr>      <chr>          <dbl> <chr> <chr> 
>  1 Luke Sk~    172    77 blond      fair       blue            19   male  mascu~
>  2 C-3PO       167    75 <NA>       gold       yellow         112   none  mascu~
>  3 Beru Wh~    165    75 brown      light      blue            47   fema~ femin~
>  4 Biggs D~    183    84 black      light      brown           24   male  mascu~
>  5 Obi-Wan~    182    77 auburn, w~ fair       blue-gray       57   male  mascu~
>  6 Anakin ~    188    84 blond      fair       blue            41.9 male  mascu~
>  7 Han Solo    180    80 brown      fair       brown           29   male  mascu~
>  8 Greedo      173    74 <NA>       green      black           44   male  mascu~
>  9 Wedge A~    170    77 brown      fair       hazel           21   male  mascu~
> 10 Palpati~    170    75 grey       pale       yellow          82   male  mascu~
> # ... with 22 more rows, and 5 more variables: homeworld <chr>, species <chr>,
> #   films <list>, vehicles <list>, starships <list>
```

]

.panel[.panel-name[Sol. Ej. 3]

```r
starwars %>%
  filter(eye_color %in% c("brown", "red"))
```

```
> # A tibble: 26 x 14
>    name     height  mass hair_color skin_color eye_color birth_year sex   gender
>    <chr>     <int> <dbl> <chr>      <chr>      <chr>          <dbl> <chr> <chr> 
>  1 R2-D2        96  32   <NA>       white, bl~ red             33   none  mascu~
>  2 Leia Or~    150  49   brown      light      brown           19   fema~ femin~
>  3 R5-D4        97  32   <NA>       white, red red             NA   none  mascu~
>  4 Biggs D~    183  84   black      light      brown           24   male  mascu~
>  5 Han Solo    180  80   brown      fair       brown           29   male  mascu~
>  6 Yoda         66  17   white      green      brown          896   male  mascu~
>  7 Boba Fe~    183  78.2 black      fair       brown           31.5 male  mascu~
>  8 IG-88       200 140   none       metal      red             15   none  mascu~
>  9 Bossk       190 113   none       green      red             53   male  mascu~
> 10 Lando C~    177  79   black      dark       brown           31   male  mascu~
> # ... with 16 more rows, and 5 more variables: homeworld <chr>, species <chr>,
> #   films <list>, vehicles <list>, starships <list>
```

]

.panel[.panel-name[Sol. Ej. 4]

```r
starwars %>%
  filter((species != "Human" &
            sex == "Male" &
            height > 170) |
           eye_color %in% c("brown", "red"))
```

```
> # A tibble: 26 x 14
>    name     height  mass hair_color skin_color eye_color birth_year sex   gender
>    <chr>     <int> <dbl> <chr>      <chr>      <chr>          <dbl> <chr> <chr> 
>  1 R2-D2        96  32   <NA>       white, bl~ red             33   none  mascu~
>  2 Leia Or~    150  49   brown      light      brown           19   fema~ femin~
>  3 R5-D4        97  32   <NA>       white, red red             NA   none  mascu~
>  4 Biggs D~    183  84   black      light      brown           24   male  mascu~
>  5 Han Solo    180  80   brown      fair       brown           29   male  mascu~
>  6 Yoda         66  17   white      green      brown          896   male  mascu~
>  7 Boba Fe~    183  78.2 black      fair       brown           31.5 male  mascu~
>  8 IG-88       200 140   none       metal      red             15   none  mascu~
>  9 Bossk       190 113   none       green      red             53   male  mascu~
> 10 Lando C~    177  79   black      dark       brown           31   male  mascu~
> # ... with 16 more rows, and 5 more variables: homeworld <chr>, species <chr>,
> #   films <list>, vehicles <list>, starships <list>
```
…
```r
datos %>%
  filtro(cond1, cond2) %>%
* ordeno(var1, desc(var2))
```
Por ejemplo, vamos a **ordenar** los personajes por altura, de bajitos a altos, y en caso de empate, por peso (pero al revés, de pesados a ligeros).

```r
starwars %>%
* arrange(height, desc(mass))
```

```
> # A tibble: 87 x 14
>    name     height  mass hair_color skin_color eye_color birth_year sex   gender
>    <chr>     <int> <dbl> <chr>      <chr>      <chr>          <dbl> <chr> <chr> 
>  1 Yoda         66    17 white      green      brown            896 male  mascu~
>  2 Ratts T~     79    15 none       grey, blue unknown           NA male  mascu~
>  3 Wicket ~     88    20 brown      brown      brown              8 male  mascu~
>  4 Dud Bolt     94    45 none       blue, grey yellow            NA male  mascu~
>  5 R2-D2        96    32 <NA>       white, bl~ red               33 none  mascu~
>  6 R4-P17       96    NA none       silver, r~ red, blue         NA none  femin~
>  7 R5-D4        97    32 <NA>       white, red red               NA none  mascu~
>  8 Sebulba     112    40 none       grey, red  orange            NA male  mascu~
>  9 Gasgano     122    NA none       white, bl~ black             NA male  mascu~
> 10 Watto       137    NA black      blue, grey yellow            NA male  mascu~
> # ... with 77 more rows, and 5 more variables: homeworld <chr>, species <chr>,
> #   films <list>, vehicles <list>, starships <list>
```
…
---

# Eliminar datos ausentes (NA)

Podemos también **eliminar los registros ausentes** en alguna de sus variables con `drop_na()`. Si no especificamos variables, elimina todos los registros que tenga alguno de sus campos ausente.

```r
starwars %>%
  drop_na()
```

```
> # A tibble: 29 x 14
>    name     height  mass hair_color skin_color eye_color birth_year sex   gender
>    <chr>     <int> <dbl> <chr>      <chr>      <chr>          <dbl> <chr> <chr> 
>  1 Luke Sk~    172    77 blond      fair       blue            19   male  mascu~
>  2 Darth V~    202   136 none       white      yellow          41.9 male  mascu~
>  3 Leia Or~    150    49 brown      light      brown           19   fema~ femin~
>  4 Owen La~    178   120 brown, gr~ light      blue            52   male  mascu~
>  5 Beru Wh~    165    75 brown      light      blue            47   fema~ femin~
>  6 Biggs D~    183    84 black      light      brown           24   male  mascu~
>  7 Obi-Wan~    182    77 auburn, w~ fair       blue-gray       57   male  mascu~
>  8 Anakin ~    188    84 blond      fair       blue            41.9 male  mascu~
>  9 Chewbac~    228   112 brown      unknown    blue           200   male  mascu~
> 10 Han Solo    180    80 brown      fair       brown           29   male  mascu~
> # ... with 19 more rows, and 5 more variables: homeworld <chr>, species <chr>,
> #   films <list>, vehicles <list>, starships <list>
```
…
# Eliminar duplicados: distinct()

Otra opción es **eliminar filas duplicadas** con `distinct()`, pasándole como argumentos el nombre de las variables que usaremos para quitar duplicados, por ejemplo, personajes con igual par de color de pelo y ojos.

Por defecto, solo extrae las columnas en base a las cuales hemos eliminado duplicados. Si queremos que nos mantenga todas deberemos explicitarlo con `.keep_all = TRUE`.

```r
# Elimina filas con igual (color_pelo, color_ojos)
starwars %>%
  distinct(hair_color, eye_color)
```

```
> # A tibble: 35 x 2
>    hair_color    eye_color
>    <chr>         <chr>    
>  1 blond         blue     
>  2 <NA>          yellow   
>  3 <NA>          red      
>  4 none          yellow   
>  5 brown         brown    
>  6 brown, grey   blue     
>  7 brown         blue     
>  8 black         brown    
>  9 auburn, white blue-gray
> 10 auburn, grey  blue     
> # ... with 25 more rows
```
…
Seleccionamos por ejemplo la columna `hair_color`

```r
# seleccionamos 1 columna
starwars %>%
* select(hair_color)
```

```
> # A tibble: 87 x 1
>    hair_color   
>    <chr>        
>  1 blond        
>  2 <NA>         
>  3 <NA>         
>  4 none         
>  5 brown        
>  6 brown, grey  
>  7 brown        
>  8 <NA>         
>  9 black        
> 10 auburn, white
> # ... with 77 more rows
```
…
Como sucedía al filtrar, la función `select()` es bastante versatil y nos permite:

* Seleccionar **varias variables a la vez** (concatenando sus nombres)
* **Deseleccionar** columnas con `-`
* Seleccionar columnas que **comiencen por un prefijo** (`starts_with()`), **terminen** con un sufijo (`ends_with()`), **contengan** un texto (`contains()`) o cumplan una **expresión regular** (`matches()`)
* Seleccionar columnas de **un tipo** haciendo uso de `where(is.numeric)`, etc.

```r
# color de piel y de pelo (en ese orden)
starwars %>%
  select(c(skin_color, hair_color))
```

```
> # A tibble: 87 x 2
>    skin_color  hair_color   
>    <chr>       <chr>        
>  1 fair        blond        
>  2 gold        <NA>         
>  3 white, blue <NA>         
>  4 white       none         
>  5 light       brown        
>  6 light       brown, grey  
>  7 light       brown        
>  8 white, red  <NA>         
>  9 light       black        
> 10 fair        auburn, white
> # ... with 77 more rows
```
…
Fíjate que con `select()` podrías además recolocar columnas, indícandole el orden, ayudándote también del selector `everything()`

```r
starwars %>%
  select(c(species, name, birth_year, everything()))
```

Para facilitar la recolocación tenemos una función para ello, `relocate()`,  indicándole en `.after` o `.before` detrás o delante de qué columnas queremos moverlas.

```r
starwars %>% relocate(species, .before = name)
```

```
> # A tibble: 87 x 14
>    species name    height  mass hair_color skin_color eye_color birth_year sex  
>    <chr>   <chr>    <int> <dbl> <chr>      <chr>      <chr>          <dbl> <chr>
>  1 Human   Luke S~    172    77 blond      fair       blue            19   male 
>  2 Droid   C-3PO      167    75 <NA>       gold       yellow         112   none 
>  3 Droid   R2-D2       96    32 <NA>       white, bl~ red             33   none 
>  4 Human   Darth ~    202   136 none       white      yellow          41.9 male 
>  5 Human   Leia O~    150    49 brown      light      brown           19   fema~
>  6 Human   Owen L~    178   120 brown, gr~ light      blue            52   male 
>  7 Human   Beru W~    165    75 brown      light      blue            47   fema~
>  8 Droid   R5-D4       97    32 <NA>       white, red red             NA   none 
>  9 Human   Biggs ~    183    84 black      light      brown           24   male 
> 10 Human   Obi-Wa~    182    77 auburn, w~ fair       blue-gray       57   male 
> # ... with 77 more rows, and 5 more variables: gender <chr>, homeworld <chr>,
> #   films <list>, vehicles <list>, starships <list>
```

---

# Extraer columnas: pull()

.pull-left[

Si observas la salida de los `select()`, sigue siendo una tabla `tibble`, nos preserva la naturaleza de nuestros datos.

```r
starwars %>% select(name)
```

```
> # A tibble: 87 x 1
>    name              
>    <chr>             
>  1 Luke Skywalker    
>  2 C-3PO             
>  3 R2-D2             
>  4 Darth Vader       
>  5 Leia Organa       
>  6 Owen Lars         
>  7 Beru Whitesun lars
>  8 R5-D4             
>  9 Biggs Darklighter 
> 10 Obi-Wan Kenobi    
> # ... with 77 more rows
```
…
